CUNY Data 607 - Final Project: Understanding the Impact of Weather on the Energy Production of Rooftop Solar
…
##       PanelName   Date Minutes kWh
## 1 WPO Solar PHA 8/1/17    0:00   0
## 2 WPO Solar PHA 8/1/17    0:01   0
## 3 WPO Solar PHA 8/1/17    0:02   0
## 4 WPO Solar PHA 8/1/17    0:03   0
## 5 WPO Solar PHA 8/1/17    0:04   0
## 6 WPO Solar PHA 8/1/17    0:05   0

Make variables of the PanelNames from observations with tidyr spread function, in order to then take the mean of both.

new_solar <- spread(new_solar, "PanelName", "kWh")
dplyr::tbl_df(new_solar)

## # A tibble: 44,640 x 4
##      Date Minutes `WPO Solar PHA` `WPO Solar PHB`
##  *  <chr>   <chr>           <chr>           <chr>
##  1 8/1/17    0:00               0               0
##  2 8/1/17    0:01               0               0
##  3 8/1/17    0:02               0               0
##  4 8/1/17    0:03               0               0
##  5 8/1/17    0:04               0               0
##  6 8/1/17    0:05               0               0
##  7 8/1/17    0:06               0               0
##  8 8/1/17    0:07               0               0
##  9 8/1/17    0:08               0               0
## 10 8/1/17    0:09               0               0
## # ... with 44,630 more rows
…
